<?xml version="1.0"?><svg xmlns="http://www.w3.org/2000/svg" width="24" height="24" viewBox="0 0 24 24" fill="none">
    <path fill-rule="evenodd" clip-rule="evenodd" d="M6.32218 2.32544C6.75176 1.89152 7.44824 1.89152 7.87782 2.32544L17.6778 11.2143C18.1074 11.6482 18.1074 12.3518 17.6778 12.7857L7.87782 21.6746C7.44824 22.1085 6.75176 22.1085 6.32218 21.6746C5.89261 21.2406 5.89261 20.5371 6.32218 20.1032L15.3444 12L6.32218 3.89679C5.89261 3.46287 5.89261 2.75935 6.32218 2.32544Z" fill="black"></path>
</svg>
