{
    "key": "group_6019d44381be8",
    "title": "Homepage",
    "fields": [
        {
            "key": "field_61f0d27f4463a",
            "label": "Splash Exhibitions",
            "name": "splash_exhibitions",
            "type": "post_object",
            "instructions": "",
            "required": 0,
            "conditional_logic": 0,
            "wrapper": {
                "width": "",
                "class": "",
                "id": ""
            },
            "post_type": [
                "exhibitions"
            ],
            "taxonomy": "",
            "allow_null": 0,
            "multiple": 1,
            "return_format": "object",
            "ui": 1
        },
        {
            "key": "field_6019d450a7141",
            "label": "Intro Slider",
            "name": "intro_slider",
            "type": "repeater",
            "instructions": "Add fields for each slide here. To add a new slide just click \"Add Row\". You can add as many slides as you'd like.",
            "required": 0,
            "conditional_logic": 0,
            "wrapper": {
                "width": "",
                "class": "",
                "id": ""
            },
            "collapsed": "",
            "min": 0,
            "max": 0,
            "layout": "block",
            "button_label": "",
            "sub_fields": [
                {
                    "key": "field_6019d49da7142",
                    "label": "Intro Background Image",
                    "name": "intro_background_image",
                    "type": "image",
                    "instructions": "An optional background that'll override the default background animation on just this slide.",
                    "required": 0,
                    "conditional_logic": 0,
                    "wrapper": {
                        "width": "50",
                        "class": "",
                        "id": ""
                    },
                    "return_format": "array",
                    "preview_size": "medium",
                    "library": "all",
                    "min_width": "",
                    "min_height": "",
                    "min_size": "",
                    "max_width": "",
                    "max_height": "",
                    "max_size": "",
                    "mime_types": ""
                },
                {
                    "key": "field_6030095f679f1",
                    "label": "Intro Background Mobile Image",
                    "name": "intro_background_mobile_image",
                    "type": "image",
                    "instructions": "",
                    "required": 0,
                    "conditional_logic": 0,
                    "wrapper": {
                        "width": "25",
                        "class": "",
                        "id": ""
                    },
                    "return_format": "array",
                    "preview_size": "full",
                    "library": "all",
                    "min_width": "",
                    "min_height": "",
                    "min_size": "",
                    "max_width": "",
                    "max_height": "",
                    "max_size": "",
                    "mime_types": ""
                },
                {
                    "key": "field_6019d514a7147",
                    "label": "Intro Featured Image",
                    "name": "intro_featured_image",
                    "type": "image",
                    "instructions": "An optional image that appears on the right of the text",
                    "required": 0,
                    "conditional_logic": 0,
                    "wrapper": {
                        "width": "25",
                        "class": "",
                        "id": ""
                    },
                    "return_format": "array",
                    "preview_size": "medium",
                    "library": "all",
                    "min_width": "",
                    "min_height": "",
                    "min_size": "",
                    "max_width": "",
                    "max_height": "",
                    "max_size": "",
                    "mime_types": ""
                },
                {
                    "key": "field_6019d4b5a7143",
                    "label": "Intro Title",
                    "name": "intro_title",
                    "type": "textarea",
                    "instructions": "Page title H1 text.",
                    "required": 0,
                    "conditional_logic": 0,
                    "wrapper": {
                        "width": "25",
                        "class": "",
                        "id": ""
                    },
                    "default_value": "",
                    "placeholder": "",
                    "maxlength": "",
                    "rows": 3,
                    "new_lines": ""
                },
                {
                    "key": "field_6019d4c9a7144",
                    "label": "Intro Lead Paragraph",
                    "name": "intro_lead_paragraph",
                    "type": "wysiwyg",
                    "instructions": "Text for the paragraph under the title.",
                    "required": 0,
                    "conditional_logic": 0,
                    "wrapper": {
                        "width": "25",
                        "class": "",
                        "id": ""
                    },
                    "default_value": "",
                    "tabs": "all",
                    "toolbar": "basic",
                    "media_upload": 0,
                    "delay": 0
                },
                {
                    "key": "field_6019d4eda7145",
                    "label": "Intro Button Text",
                    "name": "intro_button_text",
                    "type": "text",
                    "instructions": "What should the button say?",
                    "required": 0,
                    "conditional_logic": 0,
                    "wrapper": {
                        "width": "25",
                        "class": "",
                        "id": ""
                    },
                    "default_value": "",
                    "placeholder": "",
                    "prepend": "",
                    "append": "",
                    "maxlength": ""
                },
                {
                    "key": "field_6019d501a7146",
                    "label": "Intro Button Link",
                    "name": "intro_button_link",
                    "type": "url",
                    "instructions": "Where should the button link to?",
                    "required": 0,
                    "conditional_logic": 0,
                    "wrapper": {
                        "width": "25",
                        "class": "",
                        "id": ""
                    },
                    "default_value": "",
                    "placeholder": ""
                }
            ]
        },
        {
            "key": "field_601c40672ea27",
            "label": "About",
            "name": "about",
            "type": "group",
            "instructions": "Enter the fields for the About homepage section. Leaving the button text and button link blank will hide them.",
            "required": 0,
            "conditional_logic": 0,
            "wrapper": {
                "width": "",
                "class": "",
                "id": ""
            },
            "layout": "block",
            "sub_fields": [
                {
                    "key": "field_601c40792ea28",
                    "label": "Featured Image",
                    "name": "featured_image",
                    "type": "image",
                    "instructions": "An optional featured image.",
                    "required": 0,
                    "conditional_logic": 0,
                    "wrapper": {
                        "width": "33",
                        "class": "",
                        "id": ""
                    },
                    "return_format": "array",
                    "preview_size": "medium",
                    "library": "all",
                    "min_width": "",
                    "min_height": "",
                    "min_size": "",
                    "max_width": "",
                    "max_height": "",
                    "max_size": "",
                    "mime_types": ""
                },
                {
                    "key": "field_601c40972ea29",
                    "label": "Title",
                    "name": "title",
                    "type": "textarea",
                    "instructions": "Section title goes here.",
                    "required": 0,
                    "conditional_logic": 0,
                    "wrapper": {
                        "width": "33",
                        "class": "",
                        "id": ""
                    },
                    "default_value": "",
                    "placeholder": "",
                    "maxlength": "",
                    "rows": 3,
                    "new_lines": ""
                },
                {
                    "key": "field_601c40ab2ea2a",
                    "label": "Paragraph",
                    "name": "paragraph",
                    "type": "wysiwyg",
                    "instructions": "Enter text for the descriptive paragraph.",
                    "required": 0,
                    "conditional_logic": 0,
                    "wrapper": {
                        "width": "33",
                        "class": "",
                        "id": ""
                    },
                    "default_value": "",
                    "tabs": "all",
                    "toolbar": "basic",
                    "media_upload": 0,
                    "delay": 0
                },
                {
                    "key": "field_601c40c02ea2b",
                    "label": "Button Text",
                    "name": "button_text",
                    "type": "text",
                    "instructions": "What should the button say?",
                    "required": 0,
                    "conditional_logic": 0,
                    "wrapper": {
                        "width": "50",
                        "class": "",
                        "id": ""
                    },
                    "default_value": "",
                    "placeholder": "",
                    "prepend": "",
                    "append": "",
                    "maxlength": ""
                },
                {
                    "key": "field_601c40d72ea2c",
                    "label": "Button Link",
                    "name": "button_link",
                    "type": "url",
                    "instructions": "Where should the button link to?",
                    "required": 0,
                    "conditional_logic": 0,
                    "wrapper": {
                        "width": "50",
                        "class": "",
                        "id": ""
                    },
                    "default_value": "",
                    "placeholder": ""
                }
            ]
        },
        {
            "key": "field_6053f171861a1",
            "label": "Featured Content",
            "name": "featured_content",
            "type": "post_object",
            "instructions": "Select multiple posts here.",
            "required": 0,
            "conditional_logic": 0,
            "wrapper": {
                "width": "",
                "class": "",
                "id": ""
            },
            "post_type": "",
            "taxonomy": "",
            "allow_null": 0,
            "multiple": 1,
            "return_format": "object",
            "ui": 1
        },
        {
            "key": "field_601c41f105d70",
            "label": "Testimonials",
            "name": "testimonials",
            "type": "group",
            "instructions": "Enter testimonials you'd like to feature here.",
            "required": 0,
            "conditional_logic": 0,
            "wrapper": {
                "width": "",
                "class": "",
                "id": ""
            },
            "layout": "block",
            "sub_fields": [
                {
                    "key": "field_601c420a05d71",
                    "label": "Testimonials Slider",
                    "name": "testimonials_slider",
                    "type": "repeater",
                    "instructions": "You can click \"Add Row\" to add new quotes\/testimonials.",
                    "required": 0,
                    "conditional_logic": 0,
                    "wrapper": {
                        "width": "",
                        "class": "",
                        "id": ""
                    },
                    "collapsed": "",
                    "min": 0,
                    "max": 0,
                    "layout": "table",
                    "button_label": "",
                    "sub_fields": [
                        {
                            "key": "field_601c423305d72",
                            "label": "Featured Image",
                            "name": "featured_image",
                            "type": "image",
                            "instructions": "Upload a featured image here.",
                            "required": 0,
                            "conditional_logic": 0,
                            "wrapper": {
                                "width": "33",
                                "class": "",
                                "id": ""
                            },
                            "return_format": "array",
                            "preview_size": "medium",
                            "library": "all",
                            "min_width": "",
                            "min_height": "",
                            "min_size": "",
                            "max_width": "",
                            "max_height": "",
                            "max_size": "",
                            "mime_types": ""
                        },
                        {
                            "key": "field_601c424e05d73",
                            "label": "Testimonial Title",
                            "name": "testimonial_title",
                            "type": "textarea",
                            "instructions": "Upload a featured image here.",
                            "required": 0,
                            "conditional_logic": 0,
                            "wrapper": {
                                "width": "33",
                                "class": "",
                                "id": ""
                            },
                            "default_value": "",
                            "placeholder": "",
                            "maxlength": "",
                            "rows": 3,
                            "new_lines": ""
                        },
                        {
                            "key": "field_601c426705d74",
                            "label": "Testimonial Paragraph",
                            "name": "testimonial_paragraph",
                            "type": "wysiwyg",
                            "instructions": "Add the quote text here.",
                            "required": 0,
                            "conditional_logic": 0,
                            "wrapper": {
                                "width": "33",
                                "class": "",
                                "id": ""
                            },
                            "default_value": "",
                            "tabs": "all",
                            "toolbar": "basic",
                            "media_upload": 0,
                            "delay": 0
                        },
                        {
                            "key": "field_601c428105d75",
                            "label": "Testimonial Author Name",
                            "name": "testimonial_author_name",
                            "type": "text",
                            "instructions": "Add the quote text author's name here.",
                            "required": 0,
                            "conditional_logic": 0,
                            "wrapper": {
                                "width": "50",
                                "class": "",
                                "id": ""
                            },
                            "default_value": "",
                            "placeholder": "",
                            "prepend": "",
                            "append": "",
                            "maxlength": ""
                        },
                        {
                            "key": "field_601c42a305d76",
                            "label": "Testimonial Author Title",
                            "name": "testimonial_author_title",
                            "type": "text",
                            "instructions": "Add the quote text author's title here.",
                            "required": 0,
                            "conditional_logic": 0,
                            "wrapper": {
                                "width": "50",
                                "class": "",
                                "id": ""
                            },
                            "default_value": "",
                            "placeholder": "",
                            "prepend": "",
                            "append": "",
                            "maxlength": ""
                        }
                    ]
                }
            ]
        },
        {
            "key": "field_601c431387b71",
            "label": "Contact",
            "name": "contact",
            "type": "group",
            "instructions": "Details for the Contact section.",
            "required": 0,
            "conditional_logic": 0,
            "wrapper": {
                "width": "",
                "class": "",
                "id": ""
            },
            "layout": "block",
            "sub_fields": [
                {
                    "key": "field_601c431387b72",
                    "label": "Title",
                    "name": "title",
                    "type": "textarea",
                    "instructions": "Enter text here for the section title.",
                    "required": 0,
                    "conditional_logic": 0,
                    "wrapper": {
                        "width": "50",
                        "class": "",
                        "id": ""
                    },
                    "default_value": "",
                    "placeholder": "",
                    "maxlength": "",
                    "rows": 3,
                    "new_lines": ""
                },
                {
                    "key": "field_601c433587b73",
                    "label": "Paragraph",
                    "name": "paragraph",
                    "type": "wysiwyg",
                    "instructions": "Enter text here for the section title.",
                    "required": 0,
                    "conditional_logic": 0,
                    "wrapper": {
                        "width": "50",
                        "class": "",
                        "id": ""
                    },
                    "default_value": "",
                    "tabs": "all",
                    "toolbar": "basic",
                    "media_upload": 0,
                    "delay": 0
                }
            ]
        },
        {
            "key": "field_605529a5e6e3d",
            "label": "FAQ",
            "name": "faq_accordion",
            "type": "repeater",
            "instructions": "Create Fields for FAQ. Click \"Add Row\" for every FAQ you'd like to add.",
            "required": 0,
            "conditional_logic": 0,
            "wrapper": {
                "width": "",
                "class": "",
                "id": ""
            },
            "collapsed": "",
            "min": 0,
            "max": 0,
            "layout": "table",
            "button_label": "",
            "sub_fields": [
                {
                    "key": "field_60553d88b95a7",
                    "label": "FAQ Question",
                    "name": "faq_question",
                    "type": "textarea",
                    "instructions": "",
                    "required": 0,
                    "conditional_logic": 0,
                    "wrapper": {
                        "width": "",
                        "class": "",
                        "id": ""
                    },
                    "default_value": "",
                    "placeholder": "",
                    "maxlength": "",
                    "rows": 3,
                    "new_lines": ""
                },
                {
                    "key": "field_60553d99b95a8",
                    "label": "FAQ Answer",
                    "name": "faq_answer",
                    "type": "wysiwyg",
                    "instructions": "",
                    "required": 0,
                    "conditional_logic": 0,
                    "wrapper": {
                        "width": "",
                        "class": "",
                        "id": ""
                    },
                    "default_value": "",
                    "tabs": "all",
                    "toolbar": "basic",
                    "media_upload": 1,
                    "delay": 0
                }
            ]
        }
    ],
    "location": [
        [
            {
                "param": "post_template",
                "operator": "==",
                "value": "page-home.php"
            }
        ]
    ],
    "menu_order": 0,
    "position": "normal",
    "style": "default",
    "label_placement": "top",
    "instruction_placement": "label",
    "hide_on_screen": "",
    "active": true,
    "description": "",
    "show_in_rest": 0,
    "modified": 1643182066
}